{
    "response": {
        "status": "ok",
        "userTier": "developer",
        "total": 31640,
        "startIndex": 1,
        "pageSize": 10,
        "currentPage": 1,
        "pages": 3164,
        "results": [
            {
                "id": "profile/-heather-fox-richardson",
                "type": "contributor",
                "webTitle": "\u200bHeather Cox Richardson",
                "webUrl": "https://www.theguardian.com/profile/-heather-fox-richardson",
                "apiUrl": "https://content.guardianapis.com/profile/-heather-fox-richardson",
                "bio": "<p>Heather Cox Richardson is professor of\u200bhistory at Boston College and the co\u200b-\u200bhost of NPR's politics and history podcast Freak Out and Carry On.</p>"
            },
            {
                "id": "profile/-ine-carlin",
                "type": "contributor",
                "webTitle": "Aine Carlin",
                "webUrl": "https://www.theguardian.com/profile/-ine-carlin",
                "apiUrl": "https://content.guardianapis.com/profile/-ine-carlin",
                "bio": "<p>Aine Carlin is a vegan food writer and blogger. Her two cookbooks&nbsp;<i>Keep it Vegan</i>&nbsp;and&nbsp;<i>The New Vegan</i>&nbsp;are published by Kyle Books&nbsp;</p>"
            },
            {
                "id": "profile/a--david-napier",
                "type": "contributor",
                "webTitle": "A. David Napier",
                "webUrl": "https://www.theguardian.com/profile/a--david-napier",
                "apiUrl": "https://content.guardianapis.com/profile/a--david-napier"
            },
            {
                "id": "profile/a-bongo",
                "type": "contributor",
                "webTitle": "A Bongo",
                "webUrl": "https://www.theguardian.com/profile/a-bongo",
                "apiUrl": "https://content.guardianapis.com/profile/a-bongo",
                "bio": "<p><a href=\"http://en.wikipedia.org/wiki/Bongo_%28antelope%29\">A Bongo</a> is a herbivorous, mostly nocturnal forest ungulate and among the largest of the African forest antelope species, characterised by a striking reddish-brown coat, black and white markings, white-yellow stripes and long slightly spiralled horns</p>",
                "bylineImageUrl": "https://static.guim.co.uk/sys-images/Guardian/Pix/pictures/2013/8/9/1376052373243/Bongo-antelope-003.jpg",
                "firstName": "bongo",
                "lastName": "a"
            },
            {
                "id": "profile/a-c--shilton",
                "type": "contributor",
                "webTitle": "A.C. Shilton",
                "webUrl": "https://www.theguardian.com/profile/a-c--shilton",
                "apiUrl": "https://content.guardianapis.com/profile/a-c--shilton",
                "bio": "<p>A.C. Shilton is a Tennessee-based freelance journalist and an online columnist for Outside magazine.</p>",
                "firstName": "A.C. ",
                "lastName": "Shilton"
            },
            {
                "id": "profile/a-firefighter",
                "type": "contributor",
                "webTitle": "A firefighter",
                "webUrl": "https://www.theguardian.com/profile/a-firefighter",
                "apiUrl": "https://content.guardianapis.com/profile/a-firefighter",
                "bio": "<p>This is the profile of a firefighter in England who <a href=\"http://firefighterengland.wordpress.com/\">blogs here</a></p>",
                "bylineImageUrl": "https://static.guim.co.uk/sys-images/Guardian/Pix/pictures/2014/10/13/1413210327324/Male-silhouette-003.jpg",
                "firstName": "firefighter",
                "lastName": "a"
            },
            {
                "id": "profile/a-h-cayley",
                "type": "contributor",
                "webTitle": "A.H. Cayley",
                "webUrl": "https://www.theguardian.com/profile/a-h-cayley",
                "apiUrl": "https://content.guardianapis.com/profile/a-h-cayley",
                "bio": "<p>A.H. Cayley is a Sydney-based writer and broadcaster</p>",
                "firstName": "A.H.",
                "lastName": "Cayley"
            },
            {
                "id": "profile/a-hall-peter",
                "type": "contributor",
                "webTitle": "Peter A Hall",
                "webUrl": "https://www.theguardian.com/profile/a-hall-peter",
                "apiUrl": "https://content.guardianapis.com/profile/a-hall-peter",
                "bio": "<p>Peter A Hall is Professor of European studies at Harvard university</p>",
                "bylineImageUrl": "https://static.guim.co.uk/sys-images/Guardian/Pix/pictures/2010/12/3/1291377706247/hall140.jpg",
                "firstName": "peter",
                "lastName": "ahall"
            },
            {
                "id": "profile/a-j-delgado",
                "type": "contributor",
                "webTitle": "A J Delgado",
                "webUrl": "https://www.theguardian.com/profile/a-j-delgado",
                "apiUrl": "https://content.guardianapis.com/profile/a-j-delgado",
                "bio": "<p>A J Delgado is a lawyer, political analyst, and blogger who focuses on conservative issues. Follow her Twitter: <a href=\"https://twitter.com/missADelgado\">@missADelgado</a> or on <a href=\"http://about.me/ajdelgado\">her blog</a>.</p>",
                "bylineImageUrl": "https://static.guim.co.uk/sys-images/Guardian/Pix/pictures/2014/2/2/1391351807639/AJ_Delgado.jpg",
                "firstName": "delgado",
                "lastName": "aj"
            },
            {
                "id": "profile/a-john-timperley",
                "type": "contributor",
                "webTitle": "A John Timperley",
                "webUrl": "https://www.theguardian.com/profile/a-john-timperley",
                "apiUrl": "https://content.guardianapis.com/profile/a-john-timperley"
            }
        ]
    }
}