{
    "response": {
        "status": "ok",
        "userTier": "developer",
        "total": 2232947,
        "startIndex": 1,
        "pageSize": 10,
        "currentPage": 1,
        "pages": 223295,
        "orderBy": "newest",
        "results": [
            {
                "id": "politics/live/2020/nov/24/uk-coronavirus-live-christmas-rules-tiers-covid-boris-johnson-latest-updates",
                "type": "liveblog",
                "sectionId": "politics",
                "sectionName": "Politics",
                "webPublicationDate": "2020-11-24T17:27:15Z",
                "webTitle": "UK coronavirus live: Johnson criticised for missing four-nation Christmas talks; 1 in 10 pupils missing school over Covid",
                "webUrl": "https://www.theguardian.com/politics/live/2020/nov/24/uk-coronavirus-live-christmas-rules-tiers-covid-boris-johnson-latest-updates",
                "apiUrl": "https://content.guardianapis.com/politics/live/2020/nov/24/uk-coronavirus-live-christmas-rules-tiers-covid-boris-johnson-latest-updates",
                "isHosted": false,
                "pillarId": "pillar/news",
                "pillarName": "News"
            },
            {
                "id": "business/live/2020/nov/24/markets-lifted-biden-transition-vaccine-optimism-ftse-dow-oil-confidence-business-live",
                "type": "liveblog",
                "sectionId": "business",
                "sectionName": "Business",
                "webPublicationDate": "2020-11-24T17:27:03Z",
                "webTitle": "Dow hits 30,000 point record high as markets welcome Biden transition \u2013 business live",
                "webUrl": "https://www.theguardian.com/business/live/2020/nov/24/markets-lifted-biden-transition-vaccine-optimism-ftse-dow-oil-confidence-business-live",
                "apiUrl": "https://content.guardianapis.com/business/live/2020/nov/24/markets-lifted-biden-transition-vaccine-optimism-ftse-dow-oil-confidence-business-live",
                "isHosted": false,
                "pillarId": "pillar/news",
                "pillarName": "News"
            },
            {
                "id": "football/live/2020/nov/24/rennes-v-chelsea-champions-league-live",
                "type": "liveblog",
                "sectionId": "football",
                "sectionName": "Football",
                "webPublicationDate": "2020-11-24T17:25:44Z",
                "webTitle": "Rennes v Chelsea: Champions League \u2013 live!",
                "webUrl": "https://www.theguardian.com/football/live/2020/nov/24/rennes-v-chelsea-champions-league-live",
                "apiUrl": "https://content.guardianapis.com/football/live/2020/nov/24/rennes-v-chelsea-champions-league-live",
                "isHosted": false,
                "pillarId": "pillar/sport",
                "pillarName": "Sport"
            },
            {
                "id": "us-news/live/2020/nov/24/us-election-donald-trump-joe-biden-coronavirus-covid-19-live-updates",
                "type": "liveblog",
                "sectionId": "us-news",
                "sectionName": "US news",
                "webPublicationDate": "2020-11-24T17:23:49Z",
                "webTitle": "Biden to formally introduce cabinet picks as transition finally begins \u2013 live",
                "webUrl": "https://www.theguardian.com/us-news/live/2020/nov/24/us-election-donald-trump-joe-biden-coronavirus-covid-19-live-updates",
                "apiUrl": "https://content.guardianapis.com/us-news/live/2020/nov/24/us-election-donald-trump-joe-biden-coronavirus-covid-19-live-updates",
                "isHosted": false,
                "pillarId": "pillar/news",
                "pillarName": "News"
            },
            {
                "id": "uk-news/2020/nov/24/deportation-of-man-with-children-in-uk-was-disproportionate-court-rules",
                "type": "article",
                "sectionId": "uk-news",
                "sectionName": "UK news",
                "webPublicationDate": "2020-11-24T17:23:40Z",
                "webTitle": "Deportation of man with children in UK was 'disproportionate', court rules",
                "webUrl": "https://www.theguardian.com/uk-news/2020/nov/24/deportation-of-man-with-children-in-uk-was-disproportionate-court-rules",
                "apiUrl": "https://content.guardianapis.com/uk-news/2020/nov/24/deportation-of-man-with-children-in-uk-was-disproportionate-court-rules",
                "isHosted": false,
                "pillarId": "pillar/news",
                "pillarName": "News"
            },
            {
                "id": "culture/2020/nov/24/seth-meyers-sidney-powell-late-night-hosts",
                "type": "article",
                "sectionId": "culture",
                "sectionName": "Culture",
                "webPublicationDate": "2020-11-24T17:21:58Z",
                "webTitle": "Seth Meyers rips Sidney Powell, 'the craziest addition to the Trump Cinematic Universe'",
                "webUrl": "https://www.theguardian.com/culture/2020/nov/24/seth-meyers-sidney-powell-late-night-hosts",
                "apiUrl": "https://content.guardianapis.com/culture/2020/nov/24/seth-meyers-sidney-powell-late-night-hosts",
                "isHosted": false,
                "pillarId": "pillar/arts",
                "pillarName": "Arts"
            },
            {
                "id": "media/2020/nov/24/letter-daloni-carlisle-obituary",
                "type": "article",
                "sectionId": "media",
                "sectionName": "Media",
                "webPublicationDate": "2020-11-24T17:15:20Z",
                "webTitle": "Letter: Daloni Carlisle obituary",
                "webUrl": "https://www.theguardian.com/media/2020/nov/24/letter-daloni-carlisle-obituary",
                "apiUrl": "https://content.guardianapis.com/media/2020/nov/24/letter-daloni-carlisle-obituary",
                "isHosted": false,
                "pillarId": "pillar/news",
                "pillarName": "News"
            },
            {
                "id": "football/2020/nov/24/klopp-highlights-roberto-firminos-importance-to-liverpools-orchestra",
                "type": "article",
                "sectionId": "football",
                "sectionName": "Football",
                "webPublicationDate": "2020-11-24T17:12:34Z",
                "webTitle": "Klopp highlights Roberto Firmino's importance to Liverpool's 'orchestra'",
                "webUrl": "https://www.theguardian.com/football/2020/nov/24/klopp-highlights-roberto-firminos-importance-to-liverpools-orchestra",
                "apiUrl": "https://content.guardianapis.com/football/2020/nov/24/klopp-highlights-roberto-firminos-importance-to-liverpools-orchestra",
                "isHosted": false,
                "pillarId": "pillar/sport",
                "pillarName": "Sport"
            },
            {
                "id": "sport/2020/nov/24/england-rugby-ollie-lawrence-wales-injury-autumn-nations-cup",
                "type": "article",
                "sectionId": "sport",
                "sectionName": "Sport",
                "webPublicationDate": "2020-11-24T17:12:05Z",
                "webTitle": "England centre Ollie Lawrence ruled out of trip to face Wales with hip injury",
                "webUrl": "https://www.theguardian.com/sport/2020/nov/24/england-rugby-ollie-lawrence-wales-injury-autumn-nations-cup",
                "apiUrl": "https://content.guardianapis.com/sport/2020/nov/24/england-rugby-ollie-lawrence-wales-injury-autumn-nations-cup",
                "isHosted": false,
                "pillarId": "pillar/sport",
                "pillarName": "Sport"
            },
            {
                "id": "world/live/2020/nov/24/coronavirus-live-news-who-says-foreign-experts-to-go-to-china-soon-us-records-more-than-10000-weekly-deaths",
                "type": "liveblog",
                "sectionId": "world",
                "sectionName": "World news",
                "webPublicationDate": "2020-11-24T17:09:52Z",
                "webTitle": "Coronavirus live news: daily death toll in Italy highest since March; six-person limit at Spanish Christmas gatherings",
                "webUrl": "https://www.theguardian.com/world/live/2020/nov/24/coronavirus-live-news-who-says-foreign-experts-to-go-to-china-soon-us-records-more-than-10000-weekly-deaths",
                "apiUrl": "https://content.guardianapis.com/world/live/2020/nov/24/coronavirus-live-news-who-says-foreign-experts-to-go-to-china-soon-us-records-more-than-10000-weekly-deaths",
                "isHosted": false,
                "pillarId": "pillar/news",
                "pillarName": "News"
            }
        ]
    }
}