{
    "response": {
        "status": "ok",
        "userTier": "developer",
        "total": 2232947,
        "startIndex": 1,
        "pageSize": 10,
        "currentPage": 1,
        "pages": 223295,
        "orderBy": "newest",
        "results": [
            {
                "id": "politics/live/2020/nov/24/uk-coronavirus-live-christmas-rules-tiers-covid-boris-johnson-latest-updates",
                "type": "liveblog",
                "sectionId": "politics",
                "sectionName": "Politics",
                "webPublicationDate": "2020-11-24T17:27:15Z",
                "webTitle": "UK coronavirus live: Johnson criticised for missing four-nation Christmas talks; 1 in 10 pupils missing school over Covid",
                "webUrl": "https://www.theguardian.com/politics/live/2020/nov/24/uk-coronavirus-live-christmas-rules-tiers-covid-boris-johnson-latest-updates",
                "apiUrl": "https://content.guardianapis.com/politics/live/2020/nov/24/uk-coronavirus-live-christmas-rules-tiers-covid-boris-johnson-latest-updates",
                "tags": [
                    {
                        "id": "profile/scottmurray",
                        "type": "contributor",
                        "webTitle": "Scott Murray",
                        "webUrl": "https://www.theguardian.com/profile/scottmurray",
                        "apiUrl": "https://content.guardianapis.com/profile/scottmurray",
                        "references": [],
                        "bio": "<p>Scott Murray writes about football and golf, usually when it's all happening. He is the co-author of Maurice Flitcroft biography&nbsp;<a href=\"http://www.amazon.co.uk/Phantom-Open-Maurice-Flitcroft-Worlds/dp/0224083163/ref=\">Phantom of the Open</a>&nbsp;and World Cup minute-by-minute whimsy&nbsp;<a href=\"https://www.amazon.co.uk/Gazza-Misses-Final-Rob-Smyth/dp/1472111036\">And Gazza Misses The Final</a>, and author of&nbsp;<a href=\"https://www.amazon.co.uk/Title-Story-First-Division/dp/1472936612\">The Title: The Story of the First Division</a><br></p>",
                        "firstName": "murray",
                        "lastName": "scott"
                    },
                    {
                        "id": "profile/autore1",
                        "type": "contributor",
                        "webTitle": "Autore",
                        "webUrl": "https://www.theguardian.com/profile/scottmurray",
                        "apiUrl": "https://content.guardianapis.com/profile/scottmurray",
                        "references": [],
                        "bio": "<p>PROVA BIOand golf, usually when it's all happening. He is the co-author of Maurice Flitcroft biography&nbsp;<a href=\"http://www.amazon.co.uk/Phantom-Open-Maurice-Flitcroft-Worlds/dp/0224083163/ref=\">Phantom of the Open</a>&nbsp;and World Cup minute-by-minute whimsy&nbsp;<a href=\"https://www.amazon.co.uk/Gazza-Misses-Final-Rob-Smyth/dp/1472111036\">And Gazza Misses The Final</a>, and author of&nbsp;<a href=\"https://www.amazon.co.uk/Title-Story-First-Division/dp/1472936612\">The Title: The Story of the First Division</a><br></p>",
                        "firstName": "Nome",
                        "lastName": "scott"
                    }
                ],
                "isHosted": false,
                "pillarId": "pillar/news",
                "pillarName": "News"
            },
            {
                "id": "business/live/2020/nov/24/markets-lifted-biden-transition-vaccine-optimism-ftse-dow-oil-confidence-business-live",
                "type": "liveblog",
                "sectionId": "business",
                "sectionName": "Business",
                "webPublicationDate": "2020-11-24T17:27:03Z",
                "webTitle": "Dow hits 30,000 point record high as markets welcome Biden transition – business live",
                "webUrl": "https://www.theguardian.com/business/live/2020/nov/24/markets-lifted-biden-transition-vaccine-optimism-ftse-dow-oil-confidence-business-live",
                "apiUrl": "https://content.guardianapis.com/business/live/2020/nov/24/markets-lifted-biden-transition-vaccine-optimism-ftse-dow-oil-confidence-business-live",
                "tags": [
                    {
                        "id": "tagxxxx",
                        "type": "xxx",
                        "webTitle": "Prova",
                        "webUrl": "https://www.theguardian.com/profile/scottmurray",
                        "apiUrl": "https://content.guardianapis.com/profile/scottmurray",
                        "references": [],
                        "bio": "<p>Scott Murray writes about football and golf, usually when it's all happening. He is the co-author of Maurice Flitcroft biography&nbsp;<a href=\"http://www.amazon.co.uk/Phantom-Open-Maurice-Flitcroft-Worlds/dp/0224083163/ref=\">Phantom of the Open</a>&nbsp;and World Cup minute-by-minute whimsy&nbsp;<a href=\"https://www.amazon.co.uk/Gazza-Misses-Final-Rob-Smyth/dp/1472111036\">And Gazza Misses The Final</a>, and author of&nbsp;<a href=\"https://www.amazon.co.uk/Title-Story-First-Division/dp/1472936612\">The Title: The Story of the First Division</a><br></p>",
                        "firstName": "murray",
                        "lastName": "scott"
                    }
                ],
                "isHosted": false,
                "pillarId": "pillar/news",
                "pillarName": "News"
            }
        ]
    }
}