{
    "response": {
        "status": "ok",
        "userTier": "developer",
        "total": 2234864,
        "startIndex": 1,
        "pageSize": 10,
        "currentPage": 1,
        "pages": 223487,
        "orderBy": "newest",
        "results": [
            {
                "id": "global-development/2020/dec/03/yemen-one-step-away-from-famine-as-donors-dry-up-amid-covid-un-warns",
                "type": "article",
                "sectionId": "global-development",
                "sectionName": "Global development",
                "webPublicationDate": "2020-12-03T17:57:42Z",
                "webTitle": "Yemen 'one step away from famine' as donors dry up amid Covid, UN warns",
                "webUrl": "https://www.theguardian.com/global-development/2020/dec/03/yemen-one-step-away-from-famine-as-donors-dry-up-amid-covid-un-warns",
                "apiUrl": "https://content.guardianapis.com/global-development/2020/dec/03/yemen-one-step-away-from-famine-as-donors-dry-up-amid-covid-un-warns",
                "tags": [
                    {
                        "id": "global-development/global-development",
                        "type": "keyword",
                        "sectionId": "global-development",
                        "sectionName": "Global development",
                        "webTitle": "Global development",
                        "webUrl": "https://www.theguardian.com/global-development/global-development",
                        "apiUrl": "https://content.guardianapis.com/global-development/global-development",
                        "references": []
                    },
                    {
                        "id": "tracking/commissioningdesk/global-development",
                        "type": "tracking",
                        "webTitle": "UK Global Development",
                        "webUrl": "https://www.theguardian.com/tracking/commissioningdesk/global-development",
                        "apiUrl": "https://content.guardianapis.com/tracking/commissioningdesk/global-development",
                        "references": []
                    }
                ],
                "isHosted": false,
                "pillarId": "pillar/news",
                "pillarName": "News"
            },
            {
                "id": "football/2020/dec/03/premier-league-fans-must-wear-masks-and-not-sing-or-chant-too-much",
                "type": "article",
                "sectionId": "football",
                "sectionName": "Football",
                "webPublicationDate": "2020-12-03T17:57:19Z",
                "webTitle": "Premier League fans must wear masks, not sing too much and no hugging",
                "webUrl": "https://www.theguardian.com/football/2020/dec/03/premier-league-fans-must-wear-masks-and-not-sing-or-chant-too-much",
                "apiUrl": "https://content.guardianapis.com/football/2020/dec/03/premier-league-fans-must-wear-masks-and-not-sing-or-chant-too-much",
                "tags": [
                    {
                        "id": "profile/seaningle",
                        "type": "contributor",
                        "webTitle": "Sean Ingle",
                        "webUrl": "https://www.theguardian.com/profile/seaningle",
                        "apiUrl": "https://content.guardianapis.com/profile/seaningle",
                        "references": [],
                        "bio": "<p>Sean Ingle is the Guardian's chief sports reporter. Twitter&nbsp;<a href=\"https://twitter.com/seaningle\">@seaningle</a></p>",
                        "bylineImageUrl": "https://static.guim.co.uk/sys-images/Guardian/Pix/pictures/2014/4/17/1397749339678/SeanIngle.jpg",
                        "bylineLargeImageUrl": "https://uploads.guim.co.uk/2017/10/09/Sean-Ingle,-L.png",
                        "firstName": "Sean ",
                        "lastName": "Ingle",
                        "twitterHandle": "seaningle"
                    },
                    {
                        "id": "tracking/commissioningdesk/uk-sport",
                        "type": "tracking",
                        "webTitle": "UK Sport",
                        "webUrl": "https://www.theguardian.com/tracking/commissioningdesk/uk-sport",
                        "apiUrl": "https://content.guardianapis.com/tracking/commissioningdesk/uk-sport",
                        "references": []
                    }
                ],
                "isHosted": false,
                "pillarId": "pillar/sport",
                "pillarName": "Sport"
            }
        ]
    }
}